Misc/LFSRwSkipAhead/VHDL/LFSR_33/simulation/qsim/LFSR_33.msim.vcd
$comment
	File created using the following command:
		vcd file LFSR_33.msim.vcd -direction
$end
$date
	Fri May 06 10:21:18 2022
$end
$version
	ModelSim Version 10.5b
$end
$timescale
	1ps
$end

$scope module LFSR_33_vlg_vec_tst $end
$var reg 1 ! CLK $end
$var wire 1 " OUTPUT [32] $end
$var wire 1 # OUTPUT [31] $end
$var wire 1 $ OUTPUT [30] $end
$var wire 1 % OUTPUT [29] $end
$var wire 1 & OUTPUT [28] $end
$var wire 1 ' OUTPUT [27] $end
$var wire 1 ( OUTPUT [26] $end
$var wire 1 ) OUTPUT [25] $end
$var wire 1 * OUTPUT [24] $end
$var wire 1 + OUTPUT [23] $end
$var wire 1 , OUTPUT [22] $end
$var wire 1 - OUTPUT [21] $end
$var wire 1 . OUTPUT [20] $end
$var wire 1 / OUTPUT [19] $end
$var wire 1 0 OUTPUT [18] $end
$var wire 1 1 OUTPUT [17] $end
$var wire 1 2 OUTPUT [16] $end
$var wire 1 3 OUTPUT [15] $end
$var wire 1 4 OUTPUT [14] $end
$var wire 1 5 OUTPUT [13] $end
$var wire 1 6 OUTPUT [12] $end
$var wire 1 7 OUTPUT [11] $end
$var wire 1 8 OUTPUT [10] $end
$var wire 1 9 OUTPUT [9] $end
$var wire 1 : OUTPUT [8] $end
$var wire 1 ; OUTPUT [7] $end
$var wire 1 < OUTPUT [6] $end
$var wire 1 = OUTPUT [5] $end
$var wire 1 > OUTPUT [4] $end
$var wire 1 ? OUTPUT [3] $end
$var wire 1 @ OUTPUT [2] $end
$var wire 1 A OUTPUT [1] $end
$var wire 1 B OUTPUT [0] $end

$scope module i1 $end
$var wire 1 C gnd $end
$var wire 1 D vcc $end
$var wire 1 E unknown $end
$var tri1 1 F devclrn $end
$var tri1 1 G devpor $end
$var tri1 1 H devoe $end
$var wire 1 I ~QUARTUS_CREATED_GND~I_combout $end
$var wire 1 J CLK~input_o $end
$var wire 1 K CLK~inputCLKENA0_outclk $end
$var wire 1 L shift_register[13]~feeder_combout $end
$var wire 1 M shift_register[13]~DUPLICATE_q $end
$var wire 1 N shift_register~6_combout $end
$var wire 1 O shift_register[19]~feeder_combout $end
$var wire 1 P shift_register[32]~feeder_combout $end
$var wire 1 Q shift_register~12_combout $end
$var wire 1 R shift_register[12]~DUPLICATE_q $end
$var wire 1 S shift_register[25]~feeder_combout $end
$var wire 1 T shift_register~5_combout $end
$var wire 1 U shift_register[18]~feeder_combout $end
$var wire 1 V shift_register~11_combout $end
$var wire 1 W shift_register~4_combout $end
$var wire 1 X shift_register[30]~DUPLICATE_q $end
$var wire 1 Y shift_register[17]~DUPLICATE_q $end
$var wire 1 Z shift_register~10_combout $end
$var wire 1 [ shift_register~3_combout $end
$var wire 1 \ shift_register[16]~25_combout $end
$var wire 1 ] shift_register[16]~DUPLICATE_q $end
$var wire 1 ^ shift_register~9_combout $end
$var wire 1 _ shift_register[9]~DUPLICATE_q $end
$var wire 1 ` shift_register[22]~feeder_combout $end
$var wire 1 a shift_register~2_combout $end
$var wire 1 b shift_register[15]~24_combout $end
$var wire 1 c shift_register[28]~feeder_combout $end
$var wire 1 d shift_register~8_combout $end
$var wire 1 e shift_register~1_combout $end
$var wire 1 f shift_register[14]~feeder_combout $end
$var wire 1 g shift_register[14]~DUPLICATE_q $end
$var wire 1 h shift_register~7_combout $end
$var wire 1 i shift_register[20]~feeder_combout $end
$var wire 1 j shift_register~0_combout $end
$var wire 1 k shift_register[4]~DUPLICATE_q $end
$var wire 1 l shift_register[7]~DUPLICATE_q $end
$var wire 1 m shift_register[8]~DUPLICATE_q $end
$var wire 1 n shift_register[11]~DUPLICATE_q $end
$var wire 1 o shift_register[18]~DUPLICATE_q $end
$var wire 1 p shift_register[22]~DUPLICATE_q $end
$var wire 1 q shift_register[24]~DUPLICATE_q $end
$var wire 1 r shift_register [32] $end
$var wire 1 s shift_register [31] $end
$var wire 1 t shift_register [30] $end
$var wire 1 u shift_register [29] $end
$var wire 1 v shift_register [28] $end
$var wire 1 w shift_register [27] $end
$var wire 1 x shift_register [26] $end
$var wire 1 y shift_register [25] $end
$var wire 1 z shift_register [24] $end
$var wire 1 { shift_register [23] $end
$var wire 1 | shift_register [22] $end
$var wire 1 } shift_register [21] $end
$var wire 1 ~ shift_register [20] $end
$var wire 1 !! shift_register [19] $end
$var wire 1 "! shift_register [18] $end
$var wire 1 #! shift_register [17] $end
$var wire 1 $! shift_register [16] $end
$var wire 1 %! shift_register [15] $end
$var wire 1 &! shift_register [14] $end
$var wire 1 '! shift_register [13] $end
$var wire 1 (! shift_register [12] $end
$var wire 1 )! shift_register [11] $end
$var wire 1 *! shift_register [10] $end
$var wire 1 +! shift_register [9] $end
$var wire 1 ,! shift_register [8] $end
$var wire 1 -! shift_register [7] $end
$var wire 1 .! shift_register [6] $end
$var wire 1 /! shift_register [5] $end
$var wire 1 0! shift_register [4] $end
$var wire 1 1! shift_register [3] $end
$var wire 1 2! shift_register [2] $end
$var wire 1 3! shift_register [1] $end
$var wire 1 4! shift_register [0] $end
$upscope $end
$upscope $end
$enddefinitions $end
#0
$dumpvars
0!
0B
0A
1@
1?
0>
0=
0<
0;
0:
09
08
07
06
05
04
03
02
01
00
0/
0.
0-
0,
0+
0*
0)
0(
0'
0&
0%
0$
0#
0"
0C
1D
xE
1F
1G
1H
0I
0J
0K
0L
0M
1N
0O
0P
1Q
0R
0S
1T
0U
1V
1W
0X
0Y
1Z
0[
1\
0]
1^
0_
0`
0a
1b
0c
1d
1e
0f
0g
1h
0i
1j
0k
0l
0m
0n
0o
0p
0q
04!
03!
02!
01!
00!
0/!
0.!
0-!
0,!
0+!
0*!
0)!
0(!
0'!
0&!
0%!
0$!
0#!
0"!
0!!
0~
0}
0|
0{
0z
0y
0x
0w
0v
0u
0t
0s
0r
$end
#25000
1!
1J
1K
1-!
1,!
1_
1]
10!
1)!
1(!
1$!
1n
1+!
1m
1l
1k
14!
13!
1%!
1*!
1/!
1R
1.!
1<
16
1=
18
13
1A
1B
1>
1;
1:
19
17
12
1S
0W
0^
1a
1`
0e
0j
1i
1O
0T
1U
1[
0d
1c
1f
1L
#50000
0!
0J
0K
#75000
1!
1J
1K
1&!
0,!
12!
1|
0_
11!
1#!
00!
1z
1"!
1'!
1q
1p
1o
0+!
0m
0k
04!
1~
1g
03!
1}
1v
1u
1{
1Y
0/!
1y
1!!
1M
15
1/
1)
0=
11
1+
1%
1&
1-
0A
14
1.
0B
0>
0:
09
10
1,
1*
0?
0@
0N
0V
1W
0\
0`
0b
0h
0Q
1P
1T
0U
0Z
0[
1^
1d
0f
1j
0L
#100000
0!
0J
0K
#125000
1!
1J
1K
0-!
0&!
1,!
0|
1_
0]
01!
1X
0#!
10!
0)!
0"!
0(!
0'!
1t
0p
0o
0$!
0n
1+!
1m
0l
1k
14!
1w
0g
0}
0%!
0*!
0Y
1s
1/!
0R
1r
0.!
1x
0M
05
1(
0<
1"
06
1=
1#
01
08
03
0-
04
1'
1B
1>
0;
1:
19
07
02
00
0,
1$
1?
0S
0W
1\
0^
1`
0j
0i
0O
1Q
0T
1U
1[
0d
0c
1L
#150000
0!
0J
0K
#175000
1!
1J
1K
0,!
1|
0_
1]
11!
0X
1#!
00!
0z
1"!
1(!
1'!
0t
0q
1p
1o
1$!
0+!
0m
0k
04!
0~
0w
1}
0v
0u
0{
1Y
0s
0/!
0y
1R
0!!
0x
1M
15
0(
0/
16
0)
0=
0#
11
0+
0%
0&
1-
0'
0.
0B
0>
0:
09
12
10
1,
0*
0$
0?
1S
1W
0\
0`
0Q
0P
0U
0[
1d
1h
1j
0L
#200000
0!
0J
0K
#225000
1!
1J
1K
1-!
1,!
0|
0]
01!
1X
0#!
10!
0"!
0(!
0'!
1t
0p
0o
0$!
1m
1l
1k
14!
0}
1u
0Y
1s
1y
0R
0r
1x
0M
05
1(
0"
06
1)
1#
01
1%
0-
1B
1>
1;
1:
02
00
0,
1$
1?
0S
1\
0a
0j
1i
1Q
1L
#250000
0!
0J
0K
#275000
1!
1J
1K
02!
1]
0X
1#!
1(!
1'!
0t
1$!
04!
1~
1}
0u
1Y
0s
0y
1R
0x
1M
15
0(
16
0)
0#
11
0%
1-
1.
0B
12
0$
1@
1S
1b
1V
1e
1j
0L
#300000
0!
0J
0K
#325000
1!
1J
1K
1X
1)!
0'!
1t
1n
14!
13!
1%!
1u
1y
1x
0M
05
1(
1)
1%
13
1A
1B
17
1$
0W
1Z
1T
1^
0d
1c
1f
1L
#350000
0!
0J
0K
#375000
1!
1J
1K
1&!
0,!
1_
00!
1z
1'!
1q
1+!
0m
0k
1g
1v
1*!
1/!
0x
1M
15
0(
1=
18
1&
14
0>
0:
19
1*
1W
1a
1`
0e
0h
1U
1[
1d
#400000
0!
0J
0K
#425000
1!
1J
1K
0-!
1,!
12!
1|
11!
0#!
10!
1"!
1p
1o
1m
0l
1k
1w
03!
0}
1{
0Y
1x
1(
01
1+
0-
0A
1'
1>
0;
1:
10
1,
0?
0@
0V
0\
0a
0b
0j
0i
1N
0Z
0[
0f
1h
#450000
0!
0J
0K
#475000
1!
1J
1K
1-!
0&!
02!
0]
01!
0X
1#!
0)!
0t
0$!
0n
1l
04!
0~
0g
1}
0%!
0*!
1Y
1s
1.!
1<
1#
11
08
03
1-
04
0.
0B
1;
07
02
0$
1?
1@
0W
1\
0^
1b
0h
1i
1O
1V
1[
0d
0c
1e
0L
#500000
0!
0J
0K
#525000
1!
1J
1K
0-!
0,!
0_
1]
11!
1X
00!
0z
1)!
0'!
1t
0q
1$!
1n
0+!
0m
0l
0k
1~
0w
13!
0v
1%!
0u
0{
1!!
0M
05
1/
0+
0%
13
0&
1A
0'
1.
0>
0;
0:
09
17
12
0*
1$
0?
0N
1Z
0\
1a
0`
0e
0i
0Q
1P
0[
1c
1f
1h
#550000
0!
0J
0K
#575000
1!
1J
1K
1-!
1&!
12!
0|
0]
01!
0#!
1z
0(!
1q
0p
0$!
1l
0~
1g
03!
0}
1v
1u
1*!
0Y
0R
1r
0.!
0x
0(
0<
1"
06
01
18
1%
1&
0-
0A
14
0.
1;
02
0,
1*
1?
0@
0S
1W
1\
0a
0b
0h
1i
1N
0O
1Q
0T
0Z
1[
1d
1e
0f
#600000
0!
0J
0K
#625000
1!
1J
1K
0-!
0&!
1,!
02!
1]
11!
0X
10!
1(!
0t
1$!
1m
0l
1k
1~
1w
0g
13!
0%!
0u
1{
0*!
0/!
0y
1R
0!!
1.!
1<
0/
16
0)
0=
08
1+
0%
03
1A
04
1'
1.
1>
0;
1:
12
0$
0?
1@
1S
1Z
0\
1b
0e
0i
1O
0Q
0P
0U
0d
0c
1f
#650000
0!
0J
0K
#675000
1!
1J
1K
1&!
0,!
0]
1#!
0"!
0(!
0o
0$!
0m
0~
0w
1g
03!
1}
0v
1%!
1u
0{
1*!
1Y
1y
0R
0r
1!!
1/
0"
06
1)
11
18
0+
1%
13
0&
1-
0A
14
0'
0.
0:
02
00
0S
0V
1P
0Z
1c
0f
1j
#700000
0!
0J
0K
#725000
1!
1J
1K
0&!
1X
0)!
1t
0n
14!
1w
0g
0}
1v
0u
1{
0*!
0s
0y
1r
1"
0)
0#
08
1+
0%
1&
0-
04
1'
1B
07
1$
0W
1Z
1Q
1T
1V
1^
1d
1e
1L
#750000
0!
0J
0K
#775000
1!
1J
1K
1,!
1_
00!
0z
1)!
1(!
1'!
0q
1n
1+!
1m
0k
0w
13!
0{
1*!
1/!
1R
1M
15
16
1=
18
0+
1A
0'
0>
1:
19
17
0*
0N
1S
1a
1`
0e
0T
1U
1f
1h
#800000
0!
0J
0K
#825000
1!
1J
1K
1-!
1&!
12!
1|
0#!
1z
1"!
1q
1p
1o
1l
1g
03!
1}
1{
0Y
0/!
1y
0.!
1x
1(
0<
1)
0=
01
1+
1-
0A
14
1;
10
1,
1*
0@
0V
1W
0a
0b
0h
0j
1i
1N
0O
1T
0U
0Z
0[
1e
0f
#850000
0!
0J
0K
#875000
1!
1J
1K
0-!
0&!
02!
01!
0X
10!
0)!
0"!
0t
0o
0n
0l
1k
04!
1~
1w
0g
13!
0%!
0*!
1s
1/!
0!!
1.!
1<
0/
1=
1#
08
03
1A
04
1'
1.
0B
1>
0;
07
00
0$
1?
1@
0W
1Z
1\
1b
0i
1O
0Q
0P
1U
1[
0d
0c
1f
0L
#900000
0!
0J
0K
#925000
1!
1J
1K
1&!
0,!
1]
11!
1#!
00!
0z
1"!
0(!
0'!
0q
1o
1$!
0m
0k
0~
0w
1g
0v
1%!
0{
1*!
1Y
0s
0R
0r
1!!
0M
05
1/
0"
06
0#
11
18
0+
13
0&
14
0'
0.
0>
0:
12
10
0*
0?
0N
0S
1W
0\
0^
0e
1P
0T
0Z
1c
1j
#950000
0!
0J
0K
#975000
1!
1J
1K
0_
0]
1X
0#!
10!
1t
0$!
0+!
1k
14!
1w
03!
0}
1v
1u
1{
0*!
0Y
1s
0/!
0y
1r
0.!
0x
0(
0<
1"
0)
0=
1#
01
08
1+
1%
1&
0-
0A
1'
1B
1>
09
02
1$
1a
0`
1N
0O
1Q
1T
0U
1V
1d
1e
0f
1h
1L
