Wallace/VHDL_Constrained/simulation/qsim/ConstrainedWallace.msim.vcd
$comment
	File created using the following command:
		vcd file ConstrainedWallace.msim.vcd -direction
$end
$date
	Sun May 22 17:34:03 2022
$end
$version
	ModelSim Version 10.5b
$end
$timescale
	1ps
$end

$scope module alu_vhd_vec_tst $end
$var wire 1 ! add_sub $end
$var wire 1 " cin $end
$var wire 1 # dataa [15] $end
$var wire 1 $ dataa [14] $end
$var wire 1 % dataa [13] $end
$var wire 1 & dataa [12] $end
$var wire 1 ' dataa [11] $end
$var wire 1 ( dataa [10] $end
$var wire 1 ) dataa [9] $end
$var wire 1 * dataa [8] $end
$var wire 1 + dataa [7] $end
$var wire 1 , dataa [6] $end
$var wire 1 - dataa [5] $end
$var wire 1 . dataa [4] $end
$var wire 1 / dataa [3] $end
$var wire 1 0 dataa [2] $end
$var wire 1 1 dataa [1] $end
$var wire 1 2 dataa [0] $end
$var wire 1 3 datab [15] $end
$var wire 1 4 datab [14] $end
$var wire 1 5 datab [13] $end
$var wire 1 6 datab [12] $end
$var wire 1 7 datab [11] $end
$var wire 1 8 datab [10] $end
$var wire 1 9 datab [9] $end
$var wire 1 : datab [8] $end
$var wire 1 ; datab [7] $end
$var wire 1 < datab [6] $end
$var wire 1 = datab [5] $end
$var wire 1 > datab [4] $end
$var wire 1 ? datab [3] $end
$var wire 1 @ datab [2] $end
$var wire 1 A datab [1] $end
$var wire 1 B datab [0] $end
$var wire 1 C result [15] $end
$var wire 1 D result [14] $end
$var wire 1 E result [13] $end
$var wire 1 F result [12] $end
$var wire 1 G result [11] $end
$var wire 1 H result [10] $end
$var wire 1 I result [9] $end
$var wire 1 J result [8] $end
$var wire 1 K result [7] $end
$var wire 1 L result [6] $end
$var wire 1 M result [5] $end
$var wire 1 N result [4] $end
$var wire 1 O result [3] $end
$var wire 1 P result [2] $end
$var wire 1 Q result [1] $end
$var wire 1 R result [0] $end

$scope module i1 $end
$var wire 1 S gnd $end
$var wire 1 T vcc $end
$var wire 1 U unknown $end
$var wire 1 V devoe $end
$var wire 1 W devclrn $end
$var wire 1 X devpor $end
$var wire 1 Y ww_devoe $end
$var wire 1 Z ww_devclrn $end
$var wire 1 [ ww_devpor $end
$var wire 1 \ ww_add_sub $end
$var wire 1 ] ww_cin $end
$var wire 1 ^ ww_dataa [15] $end
$var wire 1 _ ww_dataa [14] $end
$var wire 1 ` ww_dataa [13] $end
$var wire 1 a ww_dataa [12] $end
$var wire 1 b ww_dataa [11] $end
$var wire 1 c ww_dataa [10] $end
$var wire 1 d ww_dataa [9] $end
$var wire 1 e ww_dataa [8] $end
$var wire 1 f ww_dataa [7] $end
$var wire 1 g ww_dataa [6] $end
$var wire 1 h ww_dataa [5] $end
$var wire 1 i ww_dataa [4] $end
$var wire 1 j ww_dataa [3] $end
$var wire 1 k ww_dataa [2] $end
$var wire 1 l ww_dataa [1] $end
$var wire 1 m ww_dataa [0] $end
$var wire 1 n ww_datab [15] $end
$var wire 1 o ww_datab [14] $end
$var wire 1 p ww_datab [13] $end
$var wire 1 q ww_datab [12] $end
$var wire 1 r ww_datab [11] $end
$var wire 1 s ww_datab [10] $end
$var wire 1 t ww_datab [9] $end
$var wire 1 u ww_datab [8] $end
$var wire 1 v ww_datab [7] $end
$var wire 1 w ww_datab [6] $end
$var wire 1 x ww_datab [5] $end
$var wire 1 y ww_datab [4] $end
$var wire 1 z ww_datab [3] $end
$var wire 1 { ww_datab [2] $end
$var wire 1 | ww_datab [1] $end
$var wire 1 } ww_datab [0] $end
$var wire 1 ~ ww_result [15] $end
$var wire 1 !! ww_result [14] $end
$var wire 1 "! ww_result [13] $end
$var wire 1 #! ww_result [12] $end
$var wire 1 $! ww_result [11] $end
$var wire 1 %! ww_result [10] $end
$var wire 1 &! ww_result [9] $end
$var wire 1 '! ww_result [8] $end
$var wire 1 (! ww_result [7] $end
$var wire 1 )! ww_result [6] $end
$var wire 1 *! ww_result [5] $end
$var wire 1 +! ww_result [4] $end
$var wire 1 ,! ww_result [3] $end
$var wire 1 -! ww_result [2] $end
$var wire 1 .! ww_result [1] $end
$var wire 1 /! ww_result [0] $end
$var wire 1 0! \result[0]~output_o\ $end
$var wire 1 1! \result[1]~output_o\ $end
$var wire 1 2! \result[2]~output_o\ $end
$var wire 1 3! \result[3]~output_o\ $end
$var wire 1 4! \result[4]~output_o\ $end
$var wire 1 5! \result[5]~output_o\ $end
$var wire 1 6! \result[6]~output_o\ $end
$var wire 1 7! \result[7]~output_o\ $end
$var wire 1 8! \result[8]~output_o\ $end
$var wire 1 9! \result[9]~output_o\ $end
$var wire 1 :! \result[10]~output_o\ $end
$var wire 1 ;! \result[11]~output_o\ $end
$var wire 1 <! \result[12]~output_o\ $end
$var wire 1 =! \result[13]~output_o\ $end
$var wire 1 >! \result[14]~output_o\ $end
$var wire 1 ?! \result[15]~output_o\ $end
$var wire 1 @! \dataa[0]~input_o\ $end
$var wire 1 A! \datab[0]~input_o\ $end
$var wire 1 B! \add_sub~input_o\ $end
$var wire 1 C! \LPM_ADD_SUB_component|auto_generated|_~0_combout\ $end
$var wire 1 D! \cin~input_o\ $end
$var wire 1 E! \LPM_ADD_SUB_component|auto_generated|result_int[0]~1_cout\ $end
$var wire 1 F! \LPM_ADD_SUB_component|auto_generated|result_int[1]~2_combout\ $end
$var wire 1 G! \datab[1]~input_o\ $end
$var wire 1 H! \LPM_ADD_SUB_component|auto_generated|_~1_combout\ $end
$var wire 1 I! \dataa[1]~input_o\ $end
$var wire 1 J! \LPM_ADD_SUB_component|auto_generated|result_int[1]~3\ $end
$var wire 1 K! \LPM_ADD_SUB_component|auto_generated|result_int[2]~4_combout\ $end
$var wire 1 L! \datab[2]~input_o\ $end
$var wire 1 M! \LPM_ADD_SUB_component|auto_generated|_~2_combout\ $end
$var wire 1 N! \dataa[2]~input_o\ $end
$var wire 1 O! \LPM_ADD_SUB_component|auto_generated|result_int[2]~5\ $end
$var wire 1 P! \LPM_ADD_SUB_component|auto_generated|result_int[3]~6_combout\ $end
$var wire 1 Q! \dataa[3]~input_o\ $end
$var wire 1 R! \datab[3]~input_o\ $end
$var wire 1 S! \LPM_ADD_SUB_component|auto_generated|_~3_combout\ $end
$var wire 1 T! \LPM_ADD_SUB_component|auto_generated|result_int[3]~7\ $end
$var wire 1 U! \LPM_ADD_SUB_component|auto_generated|result_int[4]~8_combout\ $end
$var wire 1 V! \datab[4]~input_o\ $end
$var wire 1 W! \LPM_ADD_SUB_component|auto_generated|_~4_combout\ $end
$var wire 1 X! \dataa[4]~input_o\ $end
$var wire 1 Y! \LPM_ADD_SUB_component|auto_generated|result_int[4]~9\ $end
$var wire 1 Z! \LPM_ADD_SUB_component|auto_generated|result_int[5]~10_combout\ $end
$var wire 1 [! \dataa[5]~input_o\ $end
$var wire 1 \! \datab[5]~input_o\ $end
$var wire 1 ]! \LPM_ADD_SUB_component|auto_generated|_~5_combout\ $end
$var wire 1 ^! \LPM_ADD_SUB_component|auto_generated|result_int[5]~11\ $end
$var wire 1 _! \LPM_ADD_SUB_component|auto_generated|result_int[6]~12_combout\ $end
$var wire 1 `! \dataa[6]~input_o\ $end
$var wire 1 a! \datab[6]~input_o\ $end
$var wire 1 b! \LPM_ADD_SUB_component|auto_generated|_~6_combout\ $end
$var wire 1 c! \LPM_ADD_SUB_component|auto_generated|result_int[6]~13\ $end
$var wire 1 d! \LPM_ADD_SUB_component|auto_generated|result_int[7]~14_combout\ $end
$var wire 1 e! \dataa[7]~input_o\ $end
$var wire 1 f! \datab[7]~input_o\ $end
$var wire 1 g! \LPM_ADD_SUB_component|auto_generated|_~7_combout\ $end
$var wire 1 h! \LPM_ADD_SUB_component|auto_generated|result_int[7]~15\ $end
$var wire 1 i! \LPM_ADD_SUB_component|auto_generated|result_int[8]~16_combout\ $end
$var wire 1 j! \datab[8]~input_o\ $end
$var wire 1 k! \LPM_ADD_SUB_component|auto_generated|_~8_combout\ $end
$var wire 1 l! \dataa[8]~input_o\ $end
$var wire 1 m! \LPM_ADD_SUB_component|auto_generated|result_int[8]~17\ $end
$var wire 1 n! \LPM_ADD_SUB_component|auto_generated|result_int[9]~18_combout\ $end
$var wire 1 o! \dataa[9]~input_o\ $end
$var wire 1 p! \datab[9]~input_o\ $end
$var wire 1 q! \LPM_ADD_SUB_component|auto_generated|_~9_combout\ $end
$var wire 1 r! \LPM_ADD_SUB_component|auto_generated|result_int[9]~19\ $end
$var wire 1 s! \LPM_ADD_SUB_component|auto_generated|result_int[10]~20_combout\ $end
$var wire 1 t! \datab[10]~input_o\ $end
$var wire 1 u! \LPM_ADD_SUB_component|auto_generated|_~10_combout\ $end
$var wire 1 v! \dataa[10]~input_o\ $end
$var wire 1 w! \LPM_ADD_SUB_component|auto_generated|result_int[10]~21\ $end
$var wire 1 x! \LPM_ADD_SUB_component|auto_generated|result_int[11]~22_combout\ $end
$var wire 1 y! \dataa[11]~input_o\ $end
$var wire 1 z! \datab[11]~input_o\ $end
$var wire 1 {! \LPM_ADD_SUB_component|auto_generated|_~11_combout\ $end
$var wire 1 |! \LPM_ADD_SUB_component|auto_generated|result_int[11]~23\ $end
$var wire 1 }! \LPM_ADD_SUB_component|auto_generated|result_int[12]~24_combout\ $end
$var wire 1 ~! \dataa[12]~input_o\ $end
$var wire 1 !" \datab[12]~input_o\ $end
$var wire 1 "" \LPM_ADD_SUB_component|auto_generated|_~12_combout\ $end
$var wire 1 #" \LPM_ADD_SUB_component|auto_generated|result_int[12]~25\ $end
$var wire 1 $" \LPM_ADD_SUB_component|auto_generated|result_int[13]~26_combout\ $end
$var wire 1 %" \dataa[13]~input_o\ $end
$var wire 1 &" \datab[13]~input_o\ $end
$var wire 1 '" \LPM_ADD_SUB_component|auto_generated|_~13_combout\ $end
$var wire 1 (" \LPM_ADD_SUB_component|auto_generated|result_int[13]~27\ $end
$var wire 1 )" \LPM_ADD_SUB_component|auto_generated|result_int[14]~28_combout\ $end
$var wire 1 *" \datab[14]~input_o\ $end
$var wire 1 +" \LPM_ADD_SUB_component|auto_generated|_~14_combout\ $end
$var wire 1 ," \dataa[14]~input_o\ $end
$var wire 1 -" \LPM_ADD_SUB_component|auto_generated|result_int[14]~29\ $end
$var wire 1 ." \LPM_ADD_SUB_component|auto_generated|result_int[15]~30_combout\ $end
$var wire 1 /" \dataa[15]~input_o\ $end
$var wire 1 0" \datab[15]~input_o\ $end
$var wire 1 1" \LPM_ADD_SUB_component|auto_generated|_~15_combout\ $end
$var wire 1 2" \LPM_ADD_SUB_component|auto_generated|result_int[15]~31\ $end
$var wire 1 3" \LPM_ADD_SUB_component|auto_generated|result_int[16]~32_combout\ $end
$upscope $end
$upscope $end
$enddefinitions $end
#0
$dumpvars
0!
0"
0S
1T
xU
1V
1W
1X
1Y
1Z
1[
0\
0]
10!
01!
02!
03!
14!
15!
16!
17!
18!
19!
0:!
0;!
0<!
1=!
1>!
0?!
1@!
1A!
0B!
1C!
0D!
0E!
1F!
1G!
1H!
0I!
1J!
0K!
1L!
1M!
0N!
0O!
0P!
1Q!
0R!
0S!
1T!
0U!
0V!
0W!
1X!
1Y!
1Z!
0[!
1\!
1]!
0^!
1_!
0`!
0a!
0b!
0c!
1d!
1e!
1f!
1g!
1h!
1i!
0j!
0k!
0l!
0m!
1n!
0o!
0p!
0q!
1r!
1s!
0t!
0u!
1v!
0w!
0x!
0y!
0z!
0{!
0|!
0}!
0~!
0!"
0""
1#"
0$"
1%"
0&"
0'"
0("
1)"
0*"
0+"
1,"
1-"
1."
0/"
00"
01"
02"
03"
0#
1$
1%
0&
0'
1(
0)
0*
1+
0,
0-
1.
1/
00
01
12
03
04
05
06
07
08
09
0:
1;
0<
1=
0>
0?
1@
1A
1B
0^
1_
1`
0a
0b
1c
0d
0e
1f
0g
0h
1i
1j
0k
0l
1m
0n
0o
0p
0q
0r
0s
0t
0u
1v
0w
1x
0y
0z
1{
1|
1}
0~
1!!
1"!
0#!
0$!
0%!
1&!
1'!
1(!
1)!
1*!
1+!
0,!
0-!
0.!
1/!
0C
1D
1E
0F
0G
0H
1I
1J
1K
1L
1M
1N
0O
0P
0Q
1R
$end
#100000
0$
0%
1)
0+
1,
0.
0/
10
11
02
13
15
16
18
19
1:
0;
0=
1?
0@
0A
0B
0m
1l
1k
0j
0i
1g
0f
1d
0`
0_
0}
0|
0{
1z
0x
0v
1u
1t
1s
1q
1p
1n
10"
1&"
1!"
1t!
1p!
1j!
0f!
0\!
1R!
0L!
0G!
0A!
0,"
0%"
1o!
0e!
1`!
0X!
0Q!
1N!
1I!
0@!
0F!
1K!
1P!
1U!
0Y!
0Z!
0d!
0h!
0i!
0s!
1w!
0)"
0."
0C!
0H!
0M!
1S!
0]!
0g!
1k!
1q!
1u!
1""
1'"
11"
13"
1)"
0-"
1$"
1("
1s!
0w!
0n!
0_!
1c!
0U!
0P!
0T!
0K!
1O!
1F!
1m!
1Z!
1^!
1_!
0c!
1n!
1P!
1U!
1d!
1x!
1|!
0)"
1."
12"
0>!
0=!
09!
07!
06!
04!
13!
12!
11!
00!
03"
1}!
0#"
0d!
0!!
0"!
0&!
0(!
0)!
0+!
1,!
1-!
1.!
0/!
14!
10!
01!
02!
03!
05!
08!
19!
1<!
1=!
1?!
0R
1Q
1P
1O
0N
0L
0K
0I
0E
0D
0$"
1+!
1/!
0.!
0-!
0,!
0*!
0'!
1&!
1#!
1"!
1~
1>!
0=!
1:!
16!
13!
12!
18!
15!
1R
0Q
0P
0O
1N
0M
0J
1I
1F
1E
1C
1!!
0"!
1%!
1)!
1,!
1-!
1'!
1*!
06!
1;!
0?!
1P
1O
1M
1L
1J
1H
0E
1D
0)!
1$!
0~
0<!
0L
1G
0C
0#!
0F
#200000
1$
1%
0)
1.
01
08
09
1;
1=
1@
1B
1!
1'
1*
1-
1<
1>
0l
1i
1h
1e
0d
1b
1`
1_
1}
1{
1y
1x
1w
1v
0t
0s
1\
1B!
0t!
0p!
1f!
1a!
1\!
1V!
1L!
1A!
1,"
1%"
1y!
0o!
1l!
1[!
1X!
0I!
1K!
0O!
0Z!
0^!
0_!
1c!
0n!
0r!
0s!
0}!
1#"
1)"
0."
02"
1H!
0S!
0k!
1{!
0""
0'"
1+"
01"
1."
12"
0)"
1-"
1}!
0#"
1n!
0U!
1Y!
0K!
0("
1s!
1d!
1_!
0P!
1)"
1Z!
1$"
1("
0."
02"
13"
0>!
1=!
0;!
09!
08!
05!
04!
11!
03"
0)"
0!!
1"!
0$!
0&!
0'!
0*!
0+!
1.!
02!
15!
16!
19!
01!
03!
18!
1;!
0=!
1>!
1Q
0N
0M
0J
0I
0G
1E
0D
0-!
1*!
1)!
1&!
0.!
0,!
1'!
1$!
0"!
1!!
1?!
0>!
1<!
14!
1=!
0Q
0P
0O
1M
1L
1J
1I
1G
0E
1D
1~
0!!
1#!
1+!
1"!
0=!
0?!
1N
1F
1E
0D
1C
0"!
0~
0E
0C
#300000
0$
0%
1)
0.
19
0;
0B
0<
0,
05
06
1A
1#
0(
0i
0g
1d
0c
0`
0_
1^
0}
1|
0w
0v
1t
0q
0p
0&"
0!"
1p!
0f!
0a!
1G!
0A!
1/"
0,"
0%"
0v!
1o!
0`!
0X!
0Z!
0d!
0s!
1w!
0x!
1)"
0-"
1."
12"
13"
1C!
0H!
1b!
1g!
0q!
1""
1'"
0)"
0$"
1s!
1i!
0m!
1d!
1h!
1K!
0F!
03"
0."
1x!
0i!
0n!
1?!
1>!
1=!
0:!
09!
06!
04!
1~
1!!
1"!
0%!
0&!
0)!
0+!
1:!
0>!
0?!
00!
11!
16!
17!
19!
0<!
0=!
0N
0L
0I
0H
1E
1D
1C
1%!
0!!
0~
0/!
1.!
1)!
1(!
1&!
0#!
0"!
08!
07!
0R
1Q
1L
1K
1I
1H
0F
0E
0D
0C
0'!
0(!
0K
0J
#400000
09
1;
1<
0#
11
18
0=
0@
0*
1/
0:
0?
1"
1&
0{
0z
0x
1w
1v
0u
0t
1s
1l
1j
0e
1a
0^
1]
1D!
0/"
1~!
0l!
1Q!
1I!
1t!
0p!
0j!
1f!
1a!
0\!
0R!
0L!
1M!
1S!
1]!
0b!
0g!
1k!
1q!
0u!
0K!
1O!
1U!
1n!
1r!
1$"
13"
1E!
1F!
0x!
0|!
0w!
0n!
1i!
0d!
0h!
0_!
0U!
0i!
1m!
1x!
1|!
0}!
1#"
1?!
1<!
18!
13!
01!
0$"
0("
1}!
0#"
1n!
1~
1#!
1'!
1,!
0.!
03!
05!
06!
17!
08!
0:!
10!
0Q
1O
1J
1F
1C
1$"
1("
1)"
0,!
0*!
0)!
1(!
0'!
0%!
1/!
0;!
1:!
07!
1R
0O
0M
0L
1K
0J
0H
0)"
0$!
1%!
0(!
18!
1;!
0<!
0K
1H
0G
1'!
1$!
0#!
1=!
1<!
1J
1G
0F
1"!
1#!
0=!
1F
1E
0"!
0E
#500000
19
0;
1#
1=
1@
1*
0/
1?
0&
1%
0)
1.
16
1(
0!
1+
12
03
1{
1z
1x
0v
1t
1q
0n
1m
0j
1i
1f
1e
0d
1c
0a
1`
1^
0\
0B!
1/"
1%"
0~!
1v!
0o!
1l!
1e!
1X!
0Q!
1@!
00"
1!"
1p!
0f!
1\!
1R!
1L!
0F!
0J!
1U!
0Y!
1Z!
1i!
0n!
0r!
0s!
0x!
0|!
0$"
1)"
03"
0C!
1H!
1W!
1b!
0k!
1u!
0{!
0'"
0+"
1."
0)"
1-"
1x!
1|!
1n!
1d!
1h!
1F!
1#"
1s!
1^!
1_!
0c!
1$"
0i!
0}!
0."
02"
0?!
1=!
0<!
0:!
09!
08!
17!
14!
13!
00!
13"
0d!
0~
1"!
0#!
0%!
0&!
0'!
1(!
1+!
1,!
0/!
19!
10!
16!
18!
1:!
0=!
1>!
0R
1O
1N
1K
0J
0I
0H
0F
1E
0C
1&!
1/!
1)!
1'!
1%!
0"!
1!!
0>!
0;!
07!
1<!
15!
1R
1L
1J
1I
1H
0E
1D
0!!
0$!
0(!
1#!
1*!
06!
1?!
1M
0K
0G
1F
0D
0)!
1~
0L
1C
#600000
09
0=
0@
0*
0%
1)
0.
02
0<
01
1B
15
0A
0'
0-
1}
0|
0{
0x
0w
0t
1p
0m
0l
0i
0h
0e
1d
0b
0`
0%"
0y!
1o!
0l!
0[!
0X!
0I!
0@!
1&"
0p!
0a!
0\!
0L!
0G!
1A!
1C!
0H!
0M!
0]!
0b!
0q!
1'"
0F!
1K!
0O!
0Z!
0_!
0n!
0s!
1w!
1}!
0#"
1)"
0-"
1."
12"
0$"
0x!
0|!
0)"
1s!
1d!
1_!
0K!
1O!
1F!
1J!
1K!
0O!
1P!
0}!
1#"
03"
1=!
1;!
09!
08!
05!
04!
11!
00!
1$"
0P!
1"!
1$!
0&!
0'!
0*!
0+!
1.!
0/!
10!
01!
15!
16!
19!
0=!
0:!
0<!
1>!
0R
1Q
0N
0M
0J
0I
1G
1E
1/!
0.!
1*!
1)!
1&!
0"!
0%!
0#!
1!!
0?!
0;!
12!
11!
1R
0Q
1M
1L
1I
0H
0F
0E
1D
0~
0$!
1-!
1.!
02!
1<!
1Q
1P
0G
0C
0-!
1#!
0P
1F
#700000
1*
1%
1<
11
05
1/
06
13
1:
0"
1,
0>
00
14
17
1l
0k
1j
1g
1e
1`
0y
1w
1u
1r
0q
0p
1o
1n
0]
0D!
10"
1*"
0&"
0!"
1z!
1j!
1a!
0V!
1%"
1l!
1`!
1Q!
0N!
1I!
0K!
1O!
1P!
1T!
0U!
1Y!
0d!
0h!
1n!
1)"
0W!
1b!
1k!
1{!
0""
0'"
1+"
11"
0E!
0F!
13"
0."
0)"
1-"
0$"
0("
1}!
0#"
0n!
1d!
1h!
1i!
0^!
1U!
0Y!
0P!
0T!
0U!
1Y!
1Z!
1^!
0_!
1c!
0i!
1$"
1("
1)"
1."
1=!
18!
06!
03!
12!
01!
0)"
0d!
0h!
1_!
0c!
0Z!
0^!
1"!
1'!
0)!
0,!
1-!
0.!
02!
13!
17!
16!
08!
1;!
0<!
0=!
0>!
1?!
00!
0Q
1P
0O
0L
1J
1E
0_!
1c!
1d!
1h!
1i!
0-!
1,!
1(!
1)!
0'!
1$!
0#!
0"!
0!!
1~
0/!
1>!
1=!
1<!
07!
05!
14!
03!
0R
0P
1O
1L
1K
0J
1G
0F
0E
0D
1C
0i!
0d!
0h!
1!!
1"!
1#!
0(!
0*!
1+!
0,!
04!
15!
06!
0=!
0O
1N
0M
0K
1F
1E
1D
1i!
0+!
1*!
0)!
0"!
17!
16!
05!
0N
1M
0L
0E
1(!
1)!
0*!
06!
07!
0M
1L
1K
0)!
0(!
17!
0L
0K
1(!
1K
#800000
0<
01
16
03
0,
10
04
1@
0)
12
0B
1A
1'
1;
0?
1$
0}
1|
1{
0z
0w
1v
1q
0o
0n
1m
0l
1k
0g
0d
1b
1_
1,"
1y!
0o!
0`!
1N!
0I!
1@!
00"
0*"
1!"
1f!
0a!
0R!
1L!
1G!
0A!
0C!
1H!
1M!
0S!
0b!
1g!
1""
0+"
01"
1F!
1K!
0O!
1P!
1d!
1h!
0s!
0}!
1#"
0."
02"
1."
0m!
0d!
0h!
1U!
1T!
0K!
0F!
0J!
1K!
0U!
0i!
1m!
1n!
1r!
0>!
0;!
09!
16!
12!
11!
10!
1s!
0w!
0n!
0r!
0!!
0$!
0&!
1)!
1-!
1.!
1/!
00!
01!
13!
06!
1>!
1R
1Q
1P
1L
0I
0G
0D
0s!
1w!
1x!
1|!
0/!
0.!
1,!
0)!
1!!
18!
07!
03!
11!
0R
0Q
1O
0L
1D
1}!
0#"
0x!
0|!
1'!
0(!
0,!
1.!
08!
19!
1Q
0O
0K
1J
0}!
1#"
0$"
0'!
1&!
1:!
09!
0J
1I
1$"
1%!
0&!
0:!
1;!
0I
1H
0%!
1$!
0<!
0;!
0H
1G
0#!
0$!
1<!
0G
0F
1#!
1F
#900000
1<
11
06
00
02
0;
0$
0*
0%
1>
19
1=
0#
0+
1y
1x
1w
0v
1t
0q
0m
1l
0k
0f
0e
0`
0_
0^
0/"
0,"
0%"
0l!
0e!
0N!
1I!
0@!
0!"
1p!
0f!
1a!
1\!
1V!
1W!
1]!
1b!
0g!
1q!
0""
1F!
1J!
0K!
1O!
0P!
1i!
0m!
1n!
1r!
1)"
0-"
0."
03"
1."
12"
0n!
1P!
1K!
0O!
0$"
0("
0w!
0i!
1m!
1d!
1h!
1_!
0c!
1Z!
1^!
0_!
0d!
1i!
0m!
1n!
1x!
1|!
0)"
1-"
0P!
13"
0?!
0>!
1=!
18!
17!
02!
01!
10!
0."
02"
1}!
0#"
0n!
0~
0!!
1"!
1'!
1(!
0-!
0.!
1/!
14!
15!
16!
07!
0<!
11!
12!
08!
1>!
1R
0Q
0P
1K
1J
1E
0D
0C
1$"
1("
03"
1+!
1*!
1)!
0(!
0#!
1.!
1-!
0'!
1!!
1?!
02!
0=!
1:!
18!
17!
06!
05!
1Q
1P
1N
1M
1L
0K
0J
0F
1D
1)"
0-"
1~
0-!
0"!
1%!
1'!
1(!
0)!
0*!
08!
1;!
0>!
0P
0M
0L
1K
1J
1H
0E
1C
1."
12"
0'!
1$!
0!!
0?!
1<!
0J
1G
0D
13"
0~
1#!
1=!
1F
0C
1"!
1>!
1E
1!!
1?!
1D
1~
1C
