Wallace/VHDL/simulation/qsim/Wallace_speed.msim.vcd
$comment
	File created using the following command:
		vcd file Wallace_speed.msim.vcd -direction
$end
$date
	Tue May 10 22:45:14 2022
$end
$version
	ModelSim Version 10.5b
$end
$timescale
	1ps
$end

$scope module chi_corr_vhd_vec_tst $end
$var wire 1 ! clk $end
$var wire 1 " ctrl_sig [7] $end
$var wire 1 # ctrl_sig [6] $end
$var wire 1 $ ctrl_sig [5] $end
$var wire 1 % ctrl_sig [4] $end
$var wire 1 & ctrl_sig [3] $end
$var wire 1 ' ctrl_sig [2] $end
$var wire 1 ( ctrl_sig [1] $end
$var wire 1 ) ctrl_sig [0] $end
$var wire 1 * G [15] $end
$var wire 1 + G [14] $end
$var wire 1 , G [13] $end
$var wire 1 - G [12] $end
$var wire 1 . G [11] $end
$var wire 1 / G [10] $end
$var wire 1 0 G [9] $end
$var wire 1 1 G [8] $end
$var wire 1 2 G [7] $end
$var wire 1 3 G [6] $end
$var wire 1 4 G [5] $end
$var wire 1 5 G [4] $end
$var wire 1 6 G [3] $end
$var wire 1 7 G [2] $end
$var wire 1 8 G [1] $end
$var wire 1 9 G [0] $end
$var wire 1 : x1 [15] $end
$var wire 1 ; x1 [14] $end
$var wire 1 < x1 [13] $end
$var wire 1 = x1 [12] $end
$var wire 1 > x1 [11] $end
$var wire 1 ? x1 [10] $end
$var wire 1 @ x1 [9] $end
$var wire 1 A x1 [8] $end
$var wire 1 B x1 [7] $end
$var wire 1 C x1 [6] $end
$var wire 1 D x1 [5] $end
$var wire 1 E x1 [4] $end
$var wire 1 F x1 [3] $end
$var wire 1 G x1 [2] $end
$var wire 1 H x1 [1] $end
$var wire 1 I x1 [0] $end

$scope module i1 $end
$var wire 1 J gnd $end
$var wire 1 K vcc $end
$var wire 1 L unknown $end
$var wire 1 M devoe $end
$var wire 1 N devclrn $end
$var wire 1 O devpor $end
$var wire 1 P ww_devoe $end
$var wire 1 Q ww_devclrn $end
$var wire 1 R ww_devpor $end
$var wire 1 S ww_clk $end
$var wire 1 T ww_ctrl_sig [7] $end
$var wire 1 U ww_ctrl_sig [6] $end
$var wire 1 V ww_ctrl_sig [5] $end
$var wire 1 W ww_ctrl_sig [4] $end
$var wire 1 X ww_ctrl_sig [3] $end
$var wire 1 Y ww_ctrl_sig [2] $end
$var wire 1 Z ww_ctrl_sig [1] $end
$var wire 1 [ ww_ctrl_sig [0] $end
$var wire 1 \ ww_x1 [15] $end
$var wire 1 ] ww_x1 [14] $end
$var wire 1 ^ ww_x1 [13] $end
$var wire 1 _ ww_x1 [12] $end
$var wire 1 ` ww_x1 [11] $end
$var wire 1 a ww_x1 [10] $end
$var wire 1 b ww_x1 [9] $end
$var wire 1 c ww_x1 [8] $end
$var wire 1 d ww_x1 [7] $end
$var wire 1 e ww_x1 [6] $end
$var wire 1 f ww_x1 [5] $end
$var wire 1 g ww_x1 [4] $end
$var wire 1 h ww_x1 [3] $end
$var wire 1 i ww_x1 [2] $end
$var wire 1 j ww_x1 [1] $end
$var wire 1 k ww_x1 [0] $end
$var wire 1 l ww_G [15] $end
$var wire 1 m ww_G [14] $end
$var wire 1 n ww_G [13] $end
$var wire 1 o ww_G [12] $end
$var wire 1 p ww_G [11] $end
$var wire 1 q ww_G [10] $end
$var wire 1 r ww_G [9] $end
$var wire 1 s ww_G [8] $end
$var wire 1 t ww_G [7] $end
$var wire 1 u ww_G [6] $end
$var wire 1 v ww_G [5] $end
$var wire 1 w ww_G [4] $end
$var wire 1 x ww_G [3] $end
$var wire 1 y ww_G [2] $end
$var wire 1 z ww_G [1] $end
$var wire 1 { ww_G [0] $end
$var wire 1 | \clk~inputclkctrl_INCLK_bus\ [3] $end
$var wire 1 } \clk~inputclkctrl_INCLK_bus\ [2] $end
$var wire 1 ~ \clk~inputclkctrl_INCLK_bus\ [1] $end
$var wire 1 !! \clk~inputclkctrl_INCLK_bus\ [0] $end
$var wire 1 "! \x1[0]~input_o\ $end
$var wire 1 #! \G[0]~output_o\ $end
$var wire 1 $! \G[1]~output_o\ $end
$var wire 1 %! \G[2]~output_o\ $end
$var wire 1 &! \G[3]~output_o\ $end
$var wire 1 '! \G[4]~output_o\ $end
$var wire 1 (! \G[5]~output_o\ $end
$var wire 1 )! \G[6]~output_o\ $end
$var wire 1 *! \G[7]~output_o\ $end
$var wire 1 +! \G[8]~output_o\ $end
$var wire 1 ,! \G[9]~output_o\ $end
$var wire 1 -! \G[10]~output_o\ $end
$var wire 1 .! \G[11]~output_o\ $end
$var wire 1 /! \G[12]~output_o\ $end
$var wire 1 0! \G[13]~output_o\ $end
$var wire 1 1! \G[14]~output_o\ $end
$var wire 1 2! \G[15]~output_o\ $end
$var wire 1 3! \clk~input_o\ $end
$var wire 1 4! \clk~inputclkctrl_outclk\ $end
$var wire 1 5! \x1[5]~input_o\ $end
$var wire 1 6! \variate[5]~feeder_combout\ $end
$var wire 1 7! \ctrl_sig[5]~input_o\ $end
$var wire 1 8! \ctrl_sig[7]~input_o\ $end
$var wire 1 9! \ctrl_sig[4]~input_o\ $end
$var wire 1 :! \ctrl_sig[6]~input_o\ $end
$var wire 1 ;! \Equal0~1_combout\ $end
$var wire 1 <! \ctrl_sig[2]~input_o\ $end
$var wire 1 =! \ctrl_sig[0]~input_o\ $end
$var wire 1 >! \ctrl_sig[3]~input_o\ $end
$var wire 1 ?! \ctrl_sig[1]~input_o\ $end
$var wire 1 @! \Equal0~0_combout\ $end
$var wire 1 A! \Equal0~2_combout\ $end
$var wire 1 B! \x1[4]~input_o\ $end
$var wire 1 C! \x1[3]~input_o\ $end
$var wire 1 D! \x1[2]~input_o\ $end
$var wire 1 E! \add_res[2]~15\ $end
$var wire 1 F! \add_res[3]~17\ $end
$var wire 1 G! \add_res[4]~18_combout\ $end
$var wire 1 H! \x1[7]~input_o\ $end
$var wire 1 I! \x1[6]~input_o\ $end
$var wire 1 J! \add_res[4]~19\ $end
$var wire 1 K! \add_res[5]~21\ $end
$var wire 1 L! \add_res[6]~22_combout\ $end
$var wire 1 M! \add_res[5]~20_combout\ $end
$var wire 1 N! \x1[8]~input_o\ $end
$var wire 1 O! \add_res[6]~23\ $end
$var wire 1 P! \add_res[7]~24_combout\ $end
$var wire 1 Q! \Mult0|mult_core|romout[1][8]~0_combout\ $end
$var wire 1 R! \add_res[2]~14_combout\ $end
$var wire 1 S! \add_res[3]~16_combout\ $end
$var wire 1 T! \x1[1]~input_o\ $end
$var wire 1 U! \add_res[1]~42_combout\ $end
$var wire 1 V! \Mult0|mult_core|romout[0][12]~1_combout\ $end
$var wire 1 W! \Mult0|mult_core|romout[1][7]~combout\ $end
$var wire 1 X! \Mult0|mult_core|romout[0][11]~2_combout\ $end
$var wire 1 Y! \Mult0|mult_core|romout[1][6]~3_combout\ $end
$var wire 1 Z! \Mult0|mult_core|romout[0][10]~combout\ $end
$var wire 1 [! \Mult0|mult_core|romout[0][9]~5_combout\ $end
$var wire 1 \! \Mult0|mult_core|romout[1][5]~4_combout\ $end
$var wire 1 ]! \Mult0|mult_core|romout[0][8]~6_combout\ $end
$var wire 1 ^! \Mult0|mult_core|romout[0][7]~7_combout\ $end
$var wire 1 _! \Mult0|mult_core|padder|adder[0]|auto_generated|op_1~1_cout\ $end
$var wire 1 `! \Mult0|mult_core|padder|adder[0]|auto_generated|op_1~3_cout\ $end
$var wire 1 a! \Mult0|mult_core|padder|adder[0]|auto_generated|op_1~5_cout\ $end
$var wire 1 b! \Mult0|mult_core|padder|adder[0]|auto_generated|op_1~7_cout\ $end
$var wire 1 c! \Mult0|mult_core|padder|adder[0]|auto_generated|op_1~9\ $end
$var wire 1 d! \Mult0|mult_core|padder|adder[0]|auto_generated|op_1~10_combout\ $end
$var wire 1 e! \x1[10]~input_o\ $end
$var wire 1 f! \x1[9]~input_o\ $end
$var wire 1 g! \add_res[7]~25\ $end
$var wire 1 h! \add_res[8]~27\ $end
$var wire 1 i! \add_res[9]~28_combout\ $end
$var wire 1 j! \Mult0|mult_core|padder|adder[0]|auto_generated|op_1~8_combout\ $end
$var wire 1 k! \add_res[8]~26_combout\ $end
$var wire 1 l! \mult_res[0]~16_cout\ $end
$var wire 1 m! \mult_res[0]~17_combout\ $end
$var wire 1 n! \Mult0|mult_core|romout[1][9]~8_combout\ $end
$var wire 1 o! \Mult0|mult_core|romout[0][13]~9_combout\ $end
$var wire 1 p! \Mult0|mult_core|padder|adder[0]|auto_generated|op_1~11\ $end
$var wire 1 q! \Mult0|mult_core|padder|adder[0]|auto_generated|op_1~12_combout\ $end
$var wire 1 r! \x1[11]~input_o\ $end
$var wire 1 s! \add_res[9]~29\ $end
$var wire 1 t! \add_res[10]~30_combout\ $end
$var wire 1 u! \Mult0|mult_core|romout[2][5]~10_combout\ $end
$var wire 1 v! \mult_res[0]~18\ $end
$var wire 1 w! \mult_res[1]~19_combout\ $end
$var wire 1 x! \x1[12]~input_o\ $end
$var wire 1 y! \add_res[10]~31\ $end
$var wire 1 z! \add_res[11]~32_combout\ $end
$var wire 1 {! \Mult0|mult_core|romout[2][6]~combout\ $end
$var wire 1 |! \Mult0|mult_core|romout[0][14]~12_combout\ $end
$var wire 1 }! \Mult0|mult_core|romout[1][10]~11_combout\ $end
$var wire 1 ~! \Mult0|mult_core|padder|adder[0]|auto_generated|op_1~13\ $end
$var wire 1 !" \Mult0|mult_core|padder|adder[0]|auto_generated|op_1~14_combout\ $end
$var wire 1 "" \mult_res[1]~20\ $end
$var wire 1 #" \mult_res[2]~21_combout\ $end
$var wire 1 $" \x1[13]~input_o\ $end
$var wire 1 %" \add_res[11]~33\ $end
$var wire 1 &" \add_res[12]~34_combout\ $end
$var wire 1 '" \Mult0|mult_core|romout[2][7]~combout\ $end
$var wire 1 (" \Mult0|mult_core|padder|adder[1]|auto_generated|op_1~0_combout\ $end
$var wire 1 )" \Mult0|mult_core|romout[1][11]~13_combout\ $end
$var wire 1 *" \Mult0|mult_core|padder|adder[0]|auto_generated|op_1~15\ $end
$var wire 1 +" \Mult0|mult_core|padder|adder[0]|auto_generated|op_1~16_combout\ $end
$var wire 1 ," \mult_res[2]~22\ $end
$var wire 1 -" \mult_res[3]~23_combout\ $end
$var wire 1 ." \x1[14]~input_o\ $end
$var wire 1 /" \variate[14]~feeder_combout\ $end
$var wire 1 0" \add_res[12]~35\ $end
$var wire 1 1" \add_res[13]~36_combout\ $end
$var wire 1 2" \Mult0|mult_core|romout[2][8]~combout\ $end
$var wire 1 3" \Mult0|mult_core|padder|adder[1]|auto_generated|op_1~1\ $end
$var wire 1 4" \Mult0|mult_core|padder|adder[1]|auto_generated|op_1~2_combout\ $end
$var wire 1 5" \Mult0|mult_core|romout[1][12]~combout\ $end
$var wire 1 6" \Mult0|mult_core|padder|adder[0]|auto_generated|op_1~17\ $end
$var wire 1 7" \Mult0|mult_core|padder|adder[0]|auto_generated|op_1~18_combout\ $end
$var wire 1 8" \mult_res[3]~24\ $end
$var wire 1 9" \mult_res[4]~25_combout\ $end
$var wire 1 :" \x1[15]~input_o\ $end
$var wire 1 ;" \add_res[13]~37\ $end
$var wire 1 <" \add_res[14]~38_combout\ $end
$var wire 1 =" \Mult0|mult_core|romout[3][5]~15_combout\ $end
$var wire 1 >" \Mult0|mult_core|romout[2][9]~combout\ $end
$var wire 1 ?" \Mult0|mult_core|padder|adder[1]|auto_generated|op_1~3\ $end
$var wire 1 @" \Mult0|mult_core|padder|adder[1]|auto_generated|op_1~4_combout\ $end
$var wire 1 A" \Mult0|mult_core|romout[1][13]~14_combout\ $end
$var wire 1 B" \Mult0|mult_core|padder|adder[0]|auto_generated|op_1~19\ $end
$var wire 1 C" \Mult0|mult_core|padder|adder[0]|auto_generated|op_1~20_combout\ $end
$var wire 1 D" \mult_res[4]~26\ $end
$var wire 1 E" \mult_res[5]~27_combout\ $end
$var wire 1 F" \Mult0|mult_core|_~0_combout\ $end
$var wire 1 G" \Mult0|mult_core|padder|adder[0]|auto_generated|op_1~21\ $end
$var wire 1 H" \Mult0|mult_core|padder|adder[0]|auto_generated|op_1~22_combout\ $end
$var wire 1 I" \Mult0|mult_core|romout[2][10]~combout\ $end
$var wire 1 J" \add_res[14]~39\ $end
$var wire 1 K" \add_res[15]~40_combout\ $end
$var wire 1 L" \Mult0|mult_core|romout[3][6]~16_combout\ $end
$var wire 1 M" \Mult0|mult_core|padder|adder[1]|auto_generated|op_1~5\ $end
$var wire 1 N" \Mult0|mult_core|padder|adder[1]|auto_generated|op_1~6_combout\ $end
$var wire 1 O" \mult_res[5]~28\ $end
$var wire 1 P" \mult_res[6]~29_combout\ $end
$var wire 1 Q" \Mult0|mult_core|romout[3][7]~combout\ $end
$var wire 1 R" \Mult0|mult_core|romout[2][11]~combout\ $end
$var wire 1 S" \Mult0|mult_core|padder|adder[1]|auto_generated|op_1~7\ $end
$var wire 1 T" \Mult0|mult_core|padder|adder[1]|auto_generated|op_1~8_combout\ $end
$var wire 1 U" \mult_res[6]~30\ $end
$var wire 1 V" \mult_res[7]~31_combout\ $end
$var wire 1 W" \Mult0|mult_core|romout[3][8]~combout\ $end
$var wire 1 X" \Mult0|mult_core|romout[2][12]~combout\ $end
$var wire 1 Y" \Mult0|mult_core|padder|adder[1]|auto_generated|op_1~9\ $end
$var wire 1 Z" \Mult0|mult_core|padder|adder[1]|auto_generated|op_1~10_combout\ $end
$var wire 1 [" \mult_res[7]~32\ $end
$var wire 1 \" \mult_res[8]~33_combout\ $end
$var wire 1 ]" \Mult0|mult_core|romout[3][9]~combout\ $end
$var wire 1 ^" \Mult0|mult_core|romout[2][13]~combout\ $end
$var wire 1 _" \Mult0|mult_core|padder|adder[1]|auto_generated|op_1~11\ $end
$var wire 1 `" \Mult0|mult_core|padder|adder[1]|auto_generated|op_1~12_combout\ $end
$var wire 1 a" \mult_res[8]~34\ $end
$var wire 1 b" \mult_res[9]~35_combout\ $end
$var wire 1 c" \Mult0|mult_core|romout[3][10]~17_combout\ $end
$var wire 1 d" \Mult0|mult_core|_~1_combout\ $end
$var wire 1 e" \Mult0|mult_core|padder|adder[1]|auto_generated|op_1~13\ $end
$var wire 1 f" \Mult0|mult_core|padder|adder[1]|auto_generated|op_1~14_combout\ $end
$var wire 1 g" \mult_res[9]~36\ $end
$var wire 1 h" \mult_res[10]~37_combout\ $end
$var wire 1 i" \Mult0|mult_core|romout[3][11]~18_combout\ $end
$var wire 1 j" \Mult0|mult_core|padder|adder[1]|auto_generated|op_1~15\ $end
$var wire 1 k" \Mult0|mult_core|padder|adder[1]|auto_generated|op_1~16_combout\ $end
$var wire 1 l" \mult_res[10]~38\ $end
$var wire 1 m" \mult_res[11]~39_combout\ $end
$var wire 1 n" \Mult0|mult_core|romout[3][12]~combout\ $end
$var wire 1 o" \Mult0|mult_core|padder|adder[1]|auto_generated|op_1~17\ $end
$var wire 1 p" \Mult0|mult_core|padder|adder[1]|auto_generated|op_1~18_combout\ $end
$var wire 1 q" \mult_res[11]~40\ $end
$var wire 1 r" \mult_res[12]~41_combout\ $end
$var wire 1 s" \Mult0|mult_core|romout[3][13]~19_combout\ $end
$var wire 1 t" \Mult0|mult_core|padder|adder[1]|auto_generated|op_1~19\ $end
$var wire 1 u" \Mult0|mult_core|padder|adder[1]|auto_generated|op_1~20_combout\ $end
$var wire 1 v" \mult_res[12]~42\ $end
$var wire 1 w" \mult_res[13]~43_combout\ $end
$var wire 1 x" \Mult0|mult_core|_~2_combout\ $end
$var wire 1 y" \Mult0|mult_core|padder|adder[1]|auto_generated|op_1~21\ $end
$var wire 1 z" \Mult0|mult_core|padder|adder[1]|auto_generated|op_1~22_combout\ $end
$var wire 1 {" \mult_res[13]~44\ $end
$var wire 1 |" \mult_res[14]~45_combout\ $end
$var wire 1 }" mult_res [15] $end
$var wire 1 ~" mult_res [14] $end
$var wire 1 !# mult_res [13] $end
$var wire 1 "# mult_res [12] $end
$var wire 1 ## mult_res [11] $end
$var wire 1 $# mult_res [10] $end
$var wire 1 %# mult_res [9] $end
$var wire 1 &# mult_res [8] $end
$var wire 1 '# mult_res [7] $end
$var wire 1 (# mult_res [6] $end
$var wire 1 )# mult_res [5] $end
$var wire 1 *# mult_res [4] $end
$var wire 1 +# mult_res [3] $end
$var wire 1 ,# mult_res [2] $end
$var wire 1 -# mult_res [1] $end
$var wire 1 .# mult_res [0] $end
$var wire 1 /# add_res [15] $end
$var wire 1 0# add_res [14] $end
$var wire 1 1# add_res [13] $end
$var wire 1 2# add_res [12] $end
$var wire 1 3# add_res [11] $end
$var wire 1 4# add_res [10] $end
$var wire 1 5# add_res [9] $end
$var wire 1 6# add_res [8] $end
$var wire 1 7# add_res [7] $end
$var wire 1 8# add_res [6] $end
$var wire 1 9# add_res [5] $end
$var wire 1 :# add_res [4] $end
$var wire 1 ;# add_res [3] $end
$var wire 1 <# add_res [2] $end
$var wire 1 =# add_res [1] $end
$var wire 1 ># add_res [0] $end
$var wire 1 ?# variate [15] $end
$var wire 1 @# variate [14] $end
$var wire 1 A# variate [13] $end
$var wire 1 B# variate [12] $end
$var wire 1 C# variate [11] $end
$var wire 1 D# variate [10] $end
$var wire 1 E# variate [9] $end
$var wire 1 F# variate [8] $end
$var wire 1 G# variate [7] $end
$var wire 1 H# variate [6] $end
$var wire 1 I# variate [5] $end
$var wire 1 J# variate [4] $end
$var wire 1 K# variate [3] $end
$var wire 1 L# variate [2] $end
$var wire 1 M# variate [1] $end
$var wire 1 N# variate [0] $end
$upscope $end
$upscope $end
$enddefinitions $end
#0
$dumpvars
0!
0J
1K
xL
1M
1N
1O
1P
1Q
1R
0S
0"!
0#!
0$!
0%!
0&!
0'!
0(!
0)!
0*!
0+!
0,!
0-!
0.!
0/!
00!
01!
02!
03!
04!
05!
06!
17!
18!
19!
1:!
1;!
1<!
0=!
1>!
1?!
0@!
0A!
0B!
0C!
0D!
0E!
1F!
1G!
0H!
0I!
0J!
1K!
1L!
1M!
0N!
0O!
1P!
0Q!
0R!
1S!
0T!
1U!
0V!
0W!
0X!
0Y!
0Z!
0[!
0\!
0]!
0^!
0_!
1`!
0a!
1b!
0c!
0d!
0e!
0f!
1g!
0h!
0i!
0j!
0k!
0l!
0m!
0n!
0o!
1p!
0q!
0r!
1s!
1t!
0u!
1v!
0w!
0x!
0y!
0z!
0{!
0|!
0}!
0~!
0!"
0""
0#"
0$"
1%"
1&"
0'"
0("
0)"
1*"
0+"
1,"
0-"
0."
0/"
00"
11"
02"
03"
04"
05"
06"
07"
08"
09"
0:"
1;"
0<"
0="
0>"
1?"
0@"
0A"
1B"
0C"
1D"
0E"
0F"
0G"
0H"
0I"
0J"
1K"
0L"
0M"
0N"
0O"
0P"
0Q"
0R"
1S"
0T"
1U"
0V"
0W"
0X"
0Y"
0Z"
0["
0\"
0]"
0^"
1_"
0`"
1a"
0b"
0c"
0d"
0e"
0f"
0g"
0h"
0i"
1j"
0k"
1l"
0m"
0n"
0o"
0p"
0q"
0r"
0s"
1t"
0u"
1v"
0w"
0x"
0y"
0z"
0{"
0|"
1"
1#
1$
1%
1&
1'
1(
0)
0:
0;
0<
0=
0>
0?
0@
0A
0B
0C
0D
0E
0F
0G
0H
0I
1T
1U
1V
1W
1X
1Y
1Z
0[
0\
0]
0^
0_
0`
0a
0b
0c
0d
0e
0f
0g
0h
0i
0j
0k
0l
0m
0n
0o
0p
0q
0r
0s
0t
0u
0v
0w
0x
0y
0z
0{
x}"
0~"
0!#
0"#
0##
0$#
0%#
0&#
0'#
0(#
0)#
0*#
0+#
0,#
0-#
0.#
0/#
00#
01#
02#
03#
04#
05#
06#
07#
08#
09#
0:#
0;#
0<#
0=#
0>#
0?#
0@#
0A#
0B#
0C#
0D#
0E#
0F#
0G#
0H#
0I#
0J#
0K#
0L#
0M#
xN#
1|
1}
1~
0!!
0*
0+
0,
0-
0.
0/
00
01
02
03
04
05
06
07
08
09
$end
#20000
1!
1S
13!
1!!
14!
1:#
18#
19#
17#
1;#
1=#
14#
12#
11#
1/#
14"
1s"
1("
1="
1]"
1c"
1i"
1n"
1u!
1'"
1>"
1I"
1X"
1V!
1X!
1^!
1o!
1F"
1W!
1Y!
1}!
15"
17"
1!"
1H"
1q!
1_!
1c!
1d!
1Z"
1N"
0("
13"
1w!
1p"
1k"
1f"
1`"
1M"
1-"
1u"
19"
1w"
0N"
0S"
1b"
1h"
1m"
1r"
04"
0?"
0-"
1\"
1m!
0d!
0p!
0`!
0w!
1""
0U"
1#"
09"
0D"
1E"
1V"
0#"
0,"
0q!
1~!
0m!
1@"
19"
1D"
1T"
1P"
1U"
0!"
0*"
1w!
0""
1-"
1+"
1,"
#40000
0!
1)
0S
1[
1=!
03!
0!!
1@!
1A!
04!
#60000
1!
1S
13!
1!!
14!
1-#
1+#
1*#
1)#
1(#
1'#
1&#
1%#
1$#
1##
1"#
1!#
10!
1/!
1.!
1-!
1,!
1+!
1*!
1)!
1(!
1'!
1&!
1$!
1n
1o
1p
1q
1r
1s
1t
1u
1v
1w
1x
1z
18
16
15
14
13
12
11
10
1/
1.
1-
1,
#80000
0!
0)
0"
0#
0$
0%
0&
0'
0(
0S
0[
0Z
0Y
0X
0W
0V
0U
0T
08!
0:!
07!
09!
0>!
0<!
0?!
0=!
03!
0!!
0@!
0;!
0A!
04!
#100000
1!
1S
13!
1!!
14!
#120000
0!
1)
0S
1[
1=!
03!
0!!
04!
#140000
1!
1S
13!
1!!
14!
#160000
0!
0)
1(
0S
0[
1Z
1?!
0=!
03!
0!!
04!
#180000
1!
1S
13!
1!!
14!
#200000
0!
1)
0S
1[
1=!
03!
0!!
04!
#220000
1!
1S
13!
1!!
14!
#240000
0!
0)
0(
1'
0S
0[
0Z
1Y
1<!
0?!
0=!
03!
0!!
04!
#260000
1!
1S
13!
1!!
14!
#280000
0!
1)
0S
1[
1=!
03!
0!!
04!
#300000
1!
1S
13!
1!!
14!
#320000
0!
0)
1(
0S
0[
1Z
1?!
0=!
03!
0!!
04!
#340000
1!
1S
13!
1!!
14!
#360000
0!
1)
0S
1[
1=!
03!
0!!
04!
#380000
1!
1S
13!
1!!
14!
#400000
0!
0)
0(
0'
1&
0S
0[
0Z
0Y
1X
1>!
0<!
0?!
0=!
03!
0!!
04!
#420000
1!
1S
13!
1!!
14!
#440000
0!
1)
0S
1[
1=!
03!
0!!
04!
#460000
1!
1S
13!
1!!
14!
#480000
0!
0)
1(
0S
0[
1Z
1?!
0=!
03!
0!!
04!
#500000
1!
1S
13!
1!!
14!
#520000
0!
1)
0S
1[
1=!
03!
0!!
04!
#540000
1!
1S
13!
1!!
14!
#560000
0!
0)
0(
1'
0S
0[
0Z
1Y
1<!
0?!
0=!
03!
0!!
04!
#580000
1!
1S
13!
1!!
14!
#600000
0!
1)
0S
1[
1=!
03!
0!!
04!
#620000
1!
1S
13!
1!!
14!
#640000
0!
0)
1(
0S
0[
1Z
1?!
0=!
03!
0!!
04!
#660000
1!
1S
13!
1!!
14!
#680000
0!
1)
0S
1[
1=!
03!
0!!
1@!
04!
#700000
1!
1S
13!
1!!
14!
#720000
0!
0)
0(
0'
0&
1%
0S
0[
0Z
0Y
0X
1W
19!
0>!
0<!
0?!
0=!
03!
0!!
0@!
04!
#740000
1!
1S
13!
1!!
14!
#760000
0!
1)
0S
1[
1=!
03!
0!!
04!
#780000
1!
1S
13!
1!!
14!
#800000
0!
0)
1(
0S
0[
1Z
1?!
0=!
03!
0!!
04!
#820000
1!
1S
13!
1!!
14!
#840000
0!
1)
0S
1[
1=!
03!
0!!
04!
#860000
1!
1S
13!
1!!
14!
#880000
0!
0)
0(
1'
0S
0[
0Z
1Y
1<!
0?!
0=!
03!
0!!
04!
#900000
1!
1S
13!
1!!
14!
#920000
0!
1)
0S
1[
1=!
03!
0!!
04!
#940000
1!
1S
13!
1!!
14!
#960000
0!
0)
1(
0S
0[
1Z
1?!
0=!
03!
0!!
04!
#980000
1!
1S
13!
1!!
14!
